[gd_resource type="DynamicFont" load_steps=2 format=1]

[ext_resource path="res://fonts/NotoSansUI-Bold.ttf" type="DynamicFontData" id=1]

[resource]

font/size = 16
font/use_mipmaps = false
font/use_filter = false
font/font = ExtResource( 1 )

